[gd_scene load_steps=10 format=3 uid="uid://rhbbrlq5yd0j"]

[ext_resource type="Script" path="res://player/player.gd" id="1_twy4w"]
[ext_resource type="Texture2D" uid="uid://d0nccmqgfe5ya" path="res://player/alien.png" id="2_gh606"]
[ext_resource type="Texture2D" uid="uid://dcy2tcp71qt7y" path="res://player/alien2.png" id="3_af6t2"]
[ext_resource type="Texture2D" uid="uid://doyylegl7fftx" path="res://player/alien3.png" id="4_5cjhj"]
[ext_resource type="Texture2D" uid="uid://tj7tb00q5wh4" path="res://player/alien4.png" id="5_qm12p"]
[ext_resource type="AudioStream" uid="uid://bdx74v37hesee" path="res://enemies/sfx_deathscream_android1.wav" id="6_iv7i1"]
[ext_resource type="AudioStream" uid="uid://2mndxhchyr1q" path="res://player/sfx_wpn_machinegun_loop2.wav" id="7_cwmrh"]

[sub_resource type="AnimatedTexture" id="AnimatedTexture_cdth5"]
frames = 4
speed_scale = 13.0
frame_0/texture = ExtResource("2_gh606")
frame_1/texture = ExtResource("3_af6t2")
frame_1/duration = 1.0
frame_2/texture = ExtResource("4_5cjhj")
frame_2/duration = 1.0
frame_3/texture = ExtResource("5_qm12p")
frame_3/duration = 1.0

[sub_resource type="RectangleShape2D" id="RectangleShape2D_urp47"]
size = Vector2(58, 69)

[node name="Player" type="CharacterBody2D"]
position = Vector2(251, -189)
collision_mask = 2
script = ExtResource("1_twy4w")
rate_of_fire = 6

[node name="Sprite2D" type="Sprite2D" parent="."]
position = Vector2(13, -9)
scale = Vector2(1.40625, 1.28125)
texture = SubResource("AnimatedTexture_cdth5")

[node name="CollisionShape2D" type="CollisionShape2D" parent="."]
position = Vector2(6, -0.5)
shape = SubResource("RectangleShape2D_urp47")

[node name="Health" type="ProgressBar" parent="."]
unique_name_in_owner = true
modulate = Color(1, 1, 1, 0.32549)
offset_left = -23.0
offset_top = -40.0
offset_right = 35.0
offset_bottom = -13.0
value = 100.0

[node name="Pain" type="AudioStreamPlayer" parent="."]
unique_name_in_owner = true
stream = ExtResource("6_iv7i1")

[node name="MachineGun" type="AudioStreamPlayer" parent="."]
unique_name_in_owner = true
stream = ExtResource("7_cwmrh")
volume_db = -15.0
